sim/cpu_dump.vcd
$date
	Thu Jun 04 20:45:00 2026
$end
$version
	Icarus Verilog
$end
$timescale
	1ps
$end
$scope module tb_top $end
$var reg 1 ! clk $end
$var reg 1 " reset $end
$var integer 32 # fail_count [31:0] $end
$var integer 32 $ pass_count [31:0] $end
$scope module uut $end
$var wire 1 ! clk $end
$var wire 1 " reset $end
$var wire 32 % wb_write_data [31:0] $end
$var wire 1 & wb_reg_write $end
$var wire 32 ' wb_read_data [31:0] $end
$var wire 5 ( wb_rd_addr [4:0] $end
$var wire 32 ) wb_pc_plus4 [31:0] $end
$var wire 1 * wb_mem_to_reg $end
$var wire 32 + wb_alu_result [31:0] $end
$var wire 1 , mem_zero $end
$var wire 32 - mem_rs2_data [31:0] $end
$var wire 1 . mem_reg_write $end
$var wire 32 / mem_read_data [31:0] $end
$var wire 5 0 mem_rd_addr [4:0] $end
$var wire 32 1 mem_pc_plus4 [31:0] $end
$var wire 1 2 mem_mem_write $end
$var wire 1 3 mem_mem_to_reg $end
$var wire 1 4 mem_mem_read $end
$var wire 1 5 mem_jump $end
$var wire 32 6 mem_branch_target [31:0] $end
$var wire 1 7 mem_branch $end
$var wire 32 8 mem_alu_result [31:0] $end
$var wire 32 9 if_pc_plus4 [31:0] $end
$var wire 32 : if_pc [31:0] $end
$var wire 32 ; if_instruction [31:0] $end
$var wire 32 < id_rs2_data [31:0] $end
$var wire 5 = id_rs2_addr [4:0] $end
$var wire 32 > id_rs1_data [31:0] $end
$var wire 5 ? id_rs1_addr [4:0] $end
$var wire 1 @ id_reg_write $end
$var wire 5 A id_rd_addr [4:0] $end
$var wire 32 B id_pc_plus4 [31:0] $end
$var wire 7 C id_opcode [6:0] $end
$var wire 1 D id_mem_write $end
$var wire 1 E id_mem_to_reg $end
$var wire 1 F id_mem_read $end
$var wire 1 G id_jump $end
$var wire 32 H id_instruction [31:0] $end
$var wire 32 I id_imm [31:0] $end
$var wire 1 J id_funct7_5 $end
$var wire 3 K id_funct3 [2:0] $end
$var wire 1 L id_branch $end
$var wire 1 M id_alu_src $end
$var wire 2 N id_alu_op [1:0] $end
$var wire 1 O hz_pc_write $end
$var wire 1 P hz_if_id_write $end
$var wire 1 Q hz_id_ex_flush $end
$var wire 2 R fwd_b [1:0] $end
$var wire 2 S fwd_a [1:0] $end
$var wire 1 T ex_zero $end
$var wire 32 U ex_rs2_data [31:0] $end
$var wire 5 V ex_rs2_addr [4:0] $end
$var wire 32 W ex_rs1_data [31:0] $end
$var wire 5 X ex_rs1_addr [4:0] $end
$var wire 1 Y ex_reg_write $end
$var wire 5 Z ex_rd_addr [4:0] $end
$var wire 32 [ ex_pc_plus4 [31:0] $end
$var wire 1 \ ex_mem_write $end
$var wire 1 ] ex_mem_to_reg $end
$var wire 1 ^ ex_mem_read $end
$var wire 1 _ ex_jump $end
$var wire 32 ` ex_imm [31:0] $end
$var wire 32 a ex_fwd_b_data [31:0] $end
$var wire 1 b ex_funct7_5 $end
$var wire 3 c ex_funct3 [2:0] $end
$var wire 32 d ex_branch_target [31:0] $end
$var wire 1 e ex_branch_taken $end
$var wire 1 f ex_branch $end
$var wire 1 g ex_alu_src $end
$var wire 32 h ex_alu_result [31:0] $end
$var wire 2 i ex_alu_op [1:0] $end
$var wire 32 j ex_alu_input_b [31:0] $end
$var wire 32 k ex_alu_input_a [31:0] $end
$var wire 4 l ex_alu_ctrl [3:0] $end
$scope module u_alu $end
$var wire 32 m a [31:0] $end
$var wire 32 n b [31:0] $end
$var wire 1 T zero $end
$var wire 5 o shamt [4:0] $end
$var wire 4 p alu_ctrl [3:0] $end
$var reg 32 q result [31:0] $end
$upscope $end
$scope module u_alu_ctrl $end
$var wire 1 g is_imm $end
$var wire 1 b funct7_5 $end
$var wire 3 r funct3 [2:0] $end
$var wire 2 s alu_op [1:0] $end
$var reg 4 t alu_ctrl [3:0] $end
$upscope $end
$scope module u_branch $end
$var wire 32 u rs1_data [31:0] $end
$var wire 32 v rs2_data [31:0] $end
$var wire 1 T zero $end
$var wire 1 w uint_lt $end
$var wire 1 x uint_gte $end
$var wire 32 y target [31:0] $end
$var wire 1 z signed_lt $end
$var wire 1 { signed_gte $end
$var wire 32 | pc_plus4 [31:0] $end
$var wire 32 } pc [31:0] $end
$var wire 1 _ jump $end
$var wire 32 ~ imm [31:0] $end
$var wire 3 !" funct3 [2:0] $end
$var wire 1 f branch $end
$var reg 1 e branch_taken $end
$var reg 32 "" branch_target [31:0] $end
$upscope $end
$scope module u_ctrl $end
$var wire 7 #" opcode [6:0] $end
$var reg 2 $" alu_op [1:0] $end
$var reg 1 M alu_src $end
$var reg 1 L branch $end
$var reg 1 G jump $end
$var reg 1 F mem_read $end
$var reg 1 E mem_to_reg $end
$var reg 1 D mem_write $end
$var reg 1 @ reg_write $end
$upscope $end
$scope module u_dmem $end
$var wire 1 ! clk $end
$var wire 32 %" write_data [31:0] $end
$var wire 32 &" read_data [31:0] $end
$var wire 1 2 mem_write $end
$var wire 1 4 mem_read $end
$var wire 32 '" address [31:0] $end
$var integer 32 (" i [31:0] $end
$upscope $end
$scope module u_ex_mem $end
$var wire 1 ! clk $end
$var wire 32 )" ex_alu_result [31:0] $end
$var wire 32 *" ex_branch_target [31:0] $end
$var wire 32 +" ex_rs2_data [31:0] $end
$var wire 1 T ex_zero $end
$var wire 1 " reset $end
$var wire 1 Y ex_reg_write $end
$var wire 5 ," ex_rd_addr [4:0] $end
$var wire 32 -" ex_pc_plus4 [31:0] $end
$var wire 1 \ ex_mem_write $end
$var wire 1 ] ex_mem_to_reg $end
$var wire 1 ^ ex_mem_read $end
$var wire 1 _ ex_jump $end
$var wire 1 f ex_branch $end
$var reg 32 ." mem_alu_result [31:0] $end
$var reg 1 7 mem_branch $end
$var reg 32 /" mem_branch_target [31:0] $end
$var reg 1 5 mem_jump $end
$var reg 1 4 mem_mem_read $end
$var reg 1 3 mem_mem_to_reg $end
$var reg 1 2 mem_mem_write $end
$var reg 32 0" mem_pc_plus4 [31:0] $end
$var reg 5 1" mem_rd_addr [4:0] $end
$var reg 1 . mem_reg_write $end
$var reg 32 2" mem_rs2_data [31:0] $end
$var reg 1 , mem_zero $end
$upscope $end
$scope module u_fwd $end
$var wire 5 3" ex_mem_rd [4:0] $end
$var wire 1 . ex_mem_reg_write $end
$var wire 1 & mem_wb_reg_write $end
$var wire 5 4" mem_wb_rd [4:0] $end
$var wire 5 5" id_ex_rs2 [4:0] $end
$var wire 5 6" id_ex_rs1 [4:0] $end
$var reg 2 7" forward_a [1:0] $end
$var reg 2 8" forward_b [1:0] $end
$upscope $end
$scope module u_hazard $end
$var wire 5 9" if_id_rs1 [4:0] $end
$var wire 5 :" if_id_rs2 [4:0] $end
$var wire 5 ;" id_ex_rd [4:0] $end
$var wire 1 ^ id_ex_mem_read $end
$var reg 1 Q id_ex_flush $end
$var reg 1 P if_id_write $end
$var reg 1 O pc_write $end
$upscope $end
$scope module u_id_ex $end
$var wire 1 ! clk $end
$var wire 1 <" flush $end
$var wire 2 =" id_alu_op [1:0] $end
$var wire 1 M id_alu_src $end
$var wire 1 L id_branch $end
$var wire 3 >" id_funct3 [2:0] $end
$var wire 1 J id_funct7_5 $end
$var wire 1 G id_jump $end
$var wire 1 F id_mem_read $end
$var wire 1 E id_mem_to_reg $end
$var wire 1 D id_mem_write $end
$var wire 5 ?" id_rd_addr [4:0] $end
$var wire 1 @ id_reg_write $end
$var wire 5 @" id_rs1_addr [4:0] $end
$var wire 5 A" id_rs2_addr [4:0] $end
$var wire 1 " reset $end
$var wire 32 B" id_rs2_data [31:0] $end
$var wire 32 C" id_rs1_data [31:0] $end
$var wire 32 D" id_pc_plus4 [31:0] $end
$var wire 32 E" id_imm [31:0] $end
$var reg 2 F" ex_alu_op [1:0] $end
$var reg 1 g ex_alu_src $end
$var reg 1 f ex_branch $end
$var reg 3 G" ex_funct3 [2:0] $end
$var reg 1 b ex_funct7_5 $end
$var reg 32 H" ex_imm [31:0] $end
$var reg 1 _ ex_jump $end
$var reg 1 ^ ex_mem_read $end
$var reg 1 ] ex_mem_to_reg $end
$var reg 1 \ ex_mem_write $end
$var reg 32 I" ex_pc_plus4 [31:0] $end
$var reg 5 J" ex_rd_addr [4:0] $end
$var reg 1 Y ex_reg_write $end
$var reg 5 K" ex_rs1_addr [4:0] $end
$var reg 32 L" ex_rs1_data [31:0] $end
$var reg 5 M" ex_rs2_addr [4:0] $end
$var reg 32 N" ex_rs2_data [31:0] $end
$upscope $end
$scope module u_if_id $end
$var wire 1 ! clk $end
$var wire 1 e flush $end
$var wire 1 " reset $end
$var wire 1 O" stall $end
$var wire 32 P" if_pc_plus4 [31:0] $end
$var wire 32 Q" if_instruction [31:0] $end
$var parameter 32 R" NOP $end
$var reg 32 S" id_instruction [31:0] $end
$var reg 32 T" id_pc_plus4 [31:0] $end
$upscope $end
$scope module u_imem $end
$var wire 32 U" instruction [31:0] $end
$var wire 32 V" pc [31:0] $end
$upscope $end
$scope module u_immgen $end
$var wire 32 W" instruction [31:0] $end
$var wire 7 X" opcode [6:0] $end
$var reg 32 Y" imm_out [31:0] $end
$upscope $end
$scope module u_mem_wb $end
$var wire 1 ! clk $end
$var wire 32 Z" mem_alu_result [31:0] $end
$var wire 1 3 mem_mem_to_reg $end
$var wire 32 [" mem_pc_plus4 [31:0] $end
$var wire 5 \" mem_rd_addr [4:0] $end
$var wire 32 ]" mem_read_data [31:0] $end
$var wire 1 . mem_reg_write $end
$var wire 1 " reset $end
$var reg 32 ^" wb_alu_result [31:0] $end
$var reg 1 * wb_mem_to_reg $end
$var reg 32 _" wb_pc_plus4 [31:0] $end
$var reg 5 `" wb_rd_addr [4:0] $end
$var reg 32 a" wb_read_data [31:0] $end
$var reg 1 & wb_reg_write $end
$upscope $end
$scope module u_pc $end
$var wire 1 e branch_taken $end
$var wire 32 b" branch_target [31:0] $end
$var wire 1 ! clk $end
$var wire 1 " reset $end
$var wire 1 c" stall $end
$var wire 32 d" pc_plus4 [31:0] $end
$var reg 32 e" pc_out [31:0] $end
$upscope $end
$scope module u_regfile $end
$var wire 1 ! clk $end
$var wire 5 f" rd_addr [4:0] $end
$var wire 32 g" rd_data [31:0] $end
$var wire 1 & reg_write $end
$var wire 5 h" rs1_addr [4:0] $end
$var wire 5 i" rs2_addr [4:0] $end
$var wire 32 j" rs2_data [31:0] $end
$var wire 32 k" rs1_data [31:0] $end
$var integer 32 l" i [31:0] $end
$upscope $end
$upscope $end
$scope task check_mem $end
$var reg 32 m" actual [31:0] $end
$var reg 8 n" addr_word [7:0] $end
$var reg 32 o" expected [31:0] $end
$var reg 640 p" name [640:1] $end
$upscope $end
$scope task check_reg $end
$var reg 32 q" actual [31:0] $end
$var reg 32 r" expected [31:0] $end
$var reg 640 s" name [640:1] $end
$var reg 5 t" reg_addr [4:0] $end
$upscope $end
$upscope $end
$enddefinitions $end
$comment Show the parameter values. $end
$dumpall
b10011 R"
$end
#0
$dumpvars
bx t"
bx s"
bx r"
bx q"
bx p"
bx o"
bx n"
bx m"
b100000 l"
b0 k"
b0 j"
b0 i"
b0 h"
b0 g"
b0 f"
b0 e"
b100 d"
0c"
b11111111111111111111111111111100 b"
b0 a"
b0 `"
b0 _"
b0 ^"
b0 ]"
b0 \"
b0 ["
b0 Z"
b0 Y"
b10011 X"
b10011 W"
b0 V"
b10100000000000010010011 U"
b0 T"
b10011 S"
b10100000000000010010011 Q"
b100 P"
0O"
b0 N"
b0 M"
b0 L"
b0 K"
b0 J"
b0 I"
b0 H"
b0 G"
b0 F"
b0 E"
b0 D"
b0 C"
b0 B"
b0 A"
b0 @"
b0 ?"
b0 >"
b10 ="
0<"
b0 ;"
b0 :"
b0 9"
b0 8"
b0 7"
b0 6"
b0 5"
b0 4"
b0 3"
b0 2"
b0 1"
b0 0"
b0 /"
b0 ."
b0 -"
b0 ,"
b0 +"
b11111111111111111111111111111100 *"
b0 )"
b100000000 ("
b0 '"
b0 &"
b0 %"
b10 $"
b10011 #"
b11111111111111111111111111111100 ""
b0 !"
b0 ~
b11111111111111111111111111111100 }
b0 |
1{
0z
b11111111111111111111111111111100 y
1x
0w
b0 v
b0 u
b0 t
b0 s
b0 r
b0 q
b0 p
b0 o
b0 n
b0 m
b0 l
b0 k
b0 j
b0 i
b0 h
0g
0f
0e
b11111111111111111111111111111100 d
b0 c
0b
b0 a
b0 `
0_
0^
0]
0\
b0 [
b0 Z
0Y
b0 X
b0 W
b0 V
b0 U
1T
b0 S
b0 R
0Q
1P
1O
b10 N
1M
0L
b0 K
0J
b0 I
b10011 H
0G
0F
0E
0D
b10011 C
b0 B
b0 A
1@
b0 ?
b0 >
b0 =
b0 <
b10100000000000010010011 ;
b0 :
b100 9
b0 8
07
b0 6
05
04
03
02
b0 1
b0 0
b0 /
0.
b0 -
0,
b0 +
0*
b0 )
b0 (
b0 '
0&
b0 %
b0 $
b0 #
1"
0!
$end
#5000
1!
#10000
0!
#15000
1!
#16000
0"
#20000
0!
#25000
b101 I
b101 E"
b101 Y"
b1 A
b1 ?"
b101 =
b101 :"
b101 A"
b101 i"
b101000000000000100010011 ;
b101000000000000100010011 Q"
b101000000000000100010011 U"
b11111111111111111111111111111100 6
b11111111111111111111111111111100 /"
1,
b10 i
b10 s
b10 F"
1g
1Y
b10100000000000010010011 H
b10100000000000010010011 S"
b10100000000000010010011 W"
b100 B
b100 D"
b100 T"
b1000 9
b1000 P"
b1000 d"
b100 :
b100 V"
b100 e"
1!
#30000
0!
#35000
0T
b101 h
b101 q
b101 )"
b101 o
b1000001000000110110011 ;
b1000001000000110110011 Q"
b1000001000000110110011 U"
b1010 I
b1010 E"
b1010 Y"
b10 A
b10 ?"
b1010 =
b1010 :"
b1010 A"
b1010 i"
b101 j
b101 n
b101 d
b101 ""
b101 *"
b101 b"
b1100 9
b1100 P"
b1100 d"
b1000 :
b1000 V"
b1000 e"
b101000000000000100010011 H
b101000000000000100010011 S"
b101000000000000100010011 W"
b1000 B
b1000 D"
b1000 T"
b1 Z
b1 ,"
b1 ;"
b1 J"
b101 V
b101 5"
b101 M"
b101 `
b101 ~
b101 H"
b101 y
b0 }
b100 [
b100 |
b100 -"
b100 I"
1.
1!
#40000
0!
#45000
b1010 h
b1010 q
b1010 )"
b1010 o
b10 N
b10 $"
b10 ="
0M
1@
b1010 j
b1010 n
b1110 d
b1110 ""
b1110 *"
b1110 b"
b0 I
b0 E"
b0 Y"
b110011 X"
b11 A
b11 ?"
b10 =
b10 :"
b10 A"
b10 i"
b1 ?
b1 9"
b1 @"
b1 h"
b110011 C
b110011 #"
b1000000000100010000001000110011 ;
b1000000000100010000001000110011 Q"
b1000000000100010000001000110011 U"
1&
b101 6
b101 /"
b100 1
b100 0"
b100 ["
b1 0
b1 1"
b1 3"
b1 \"
0,
b101 8
b101 '"
b101 ."
b101 Z"
b10 Z
b10 ,"
b10 ;"
b10 J"
b1010 V
b1010 5"
b1010 M"
b1010 `
b1010 ~
b1010 H"
b1110 y
b100 }
b1000 [
b1000 |
b1000 -"
b1000 I"
b1000001000000110110011 H
b1000001000000110110011 S"
b1000001000000110110011 W"
b1100 B
b1100 D"
b1100 T"
b10000 9
b10000 P"
b10000 d"
b1100 :
b1100 V"
b1100 e"
1!
#50000
0!
#55000
b101 <
b101 B"
b101 j"
b0 >
b0 C"
b0 k"
b101 k
b101 m
b101 u
0T
b1111 h
b1111 q
b1111 )"
b1010 o
1z
0{
1w
0x
b1010 a
b1010 v
b1010 +"
b1000001111001010110011 ;
b1000001111001010110011 Q"
b1000001111001010110011 U"
1J
b100 A
b100 ?"
b1 =
b1 :"
b1 A"
b1 i"
b10 ?
b10 9"
b10 @"
b10 h"
b1000 d
b1000 ""
b1000 *"
b1000 b"
b1010 j
b1010 n
b10 R
b10 8"
b1 S
b1 7"
b101 %
b101 g"
b10100 9
b10100 P"
b10100 d"
b10000 :
b10000 V"
b10000 e"
b1000000000100010000001000110011 H
b1000000000100010000001000110011 S"
b1000000000100010000001000110011 W"
b10000 B
b10000 D"
b10000 T"
b11 Z
b11 ,"
b11 ;"
b11 J"
b10 V
b10 5"
b10 M"
b1 X
b1 6"
b1 K"
b0 `
b0 ~
b0 H"
b1000 y
b1000 }
b1100 [
b1100 |
b1100 -"
b1100 I"
0g
b1110 6
b1110 /"
b1000 1
b1000 0"
b1000 ["
b10 0
b10 1"
b10 3"
b10 \"
b1010 8
b1010 '"
b1010 ."
b1010 Z"
b100 )
b100 _"
b1 (
b1 4"
b1 `"
b1 f"
b101 +
b101 ^"
1!
#60000
0!
#65000
b1010 <
b1010 B"
b1010 j"
b101 o
b1010 k
b1010 m
b1010 u
b101 >
b101 C"
b101 k"
b101 j
b101 n
b101 h
b101 q
b101 )"
b1010 %
b1010 g"
0z
1{
0w
1x
b101 a
b101 v
b101 +"
b1 l
b1 p
b1 t
b0 R
b0 8"
b1 S
b1 7"
b1100 d
b1100 ""
b1100 *"
b1100 b"
0J
b111 K
b111 >"
b101 A
b101 ?"
b10 =
b10 :"
b10 A"
b10 i"
b1 ?
b1 9"
b1 @"
b1 h"
b1000001110001100110011 ;
b1000001110001100110011 Q"
b1000001110001100110011 U"
b1000 )
b1000 _"
b10 (
b10 4"
b10 `"
b10 f"
b1010 +
b1010 ^"
b1000 6
b1000 /"
b1100 1
b1100 0"
b1100 ["
b11 0
b11 1"
b11 3"
b11 \"
b1010 -
b1010 %"
b1010 2"
b1111 8
b1111 '"
b1111 ."
b1111 Z"
1b
b100 Z
b100 ,"
b100 ;"
b100 J"
b1 V
b1 5"
b1 M"
b10 X
b10 6"
b10 K"
b101 U
b101 N"
b1100 y
b1100 }
b10000 [
b10000 |
b10000 -"
b10000 I"
b1000001111001010110011 H
b1000001111001010110011 S"
b1000001111001010110011 W"
b10100 B
b10100 D"
b10100 T"
b11000 9
b11000 P"
b11000 d"
b10100 :
b10100 V"
b10100 e"
1!
#70000
0!
#75000
b1010 o
b1010 j
b1010 n
1z
0{
1w
0x
b101 k
b101 m
b101 u
1T
b0 h
b0 q
b0 )"
b1010 a
b1010 v
b1010 +"
b1100000010000000100011 ;
b1100000010000000100011 Q"
b1100000010000000100011 U"
b110 K
b110 >"
b110 A
b110 ?"
b10 l
b10 p
b10 t
b10000 d
b10000 ""
b10000 *"
b10000 b"
b0 S
b0 7"
b1111 %
b1111 g"
b11100 9
b11100 P"
b11100 d"
b11000 :
b11000 V"
b11000 e"
b1000001110001100110011 H
b1000001110001100110011 S"
b1000001110001100110011 W"
b11000 B
b11000 D"
b11000 T"
0b
b111 c
b111 r
b111 !"
b111 G"
b101 Z
b101 ,"
b101 ;"
b101 J"
b10 V
b10 5"
b10 M"
b1 X
b1 6"
b1 K"
b1010 U
b1010 N"
b101 W
b101 L"
b10000 y
b10000 }
b10100 [
b10100 |
b10100 -"
b10100 I"
b1100 6
b1100 /"
b10000 1
b10000 0"
b10000 ["
b100 0
b100 1"
b100 3"
b100 \"
b101 -
b101 %"
b101 2"
b101 8
b101 '"
b101 ."
b101 Z"
b1100 )
b1100 _"
b11 (
b11 4"
b11 `"
b11 f"
b1111 +
b1111 ^"
1!
#80000
0!
#85000
b1111 <
b1111 B"
b1111 j"
0T
b1111 h
b1111 q
b1111 )"
b0 >
b0 C"
b0 k"
1M
1D
b0 N
b0 $"
b0 ="
0@
b101 %
b101 g"
b11 l
b11 p
b11 t
b10100 d
b10100 ""
b10100 *"
b10100 b"
b100011 X"
b10 K
b10 >"
b0 A
b0 ?"
b11 =
b11 :"
b11 A"
b11 i"
b0 ?
b0 9"
b0 @"
b0 h"
b100011 C
b100011 #"
b10001110000011 ;
b10001110000011 Q"
b10001110000011 U"
b10000 )
b10000 _"
b100 (
b100 4"
b100 `"
b100 f"
b101 +
b101 ^"
b10000 6
b10000 /"
b10100 1
b10100 0"
b10100 ["
b101 0
b101 1"
b101 3"
b101 \"
b1010 -
b1010 %"
b1010 2"
1,
b0 8
b0 '"
b0 ."
b0 Z"
b110 c
b110 r
b110 !"
b110 G"
b110 Z
b110 ,"
b110 ;"
b110 J"
b10100 y
b10100 }
b11000 [
b11000 |
b11000 -"
b11000 I"
b1100000010000000100011 H
b1100000010000000100011 S"
b1100000010000000100011 W"
b11100 B
b11100 D"
b11100 T"
b100000 9
b100000 P"
b100000 d"
b11100 :
b11100 V"
b11100 e"
1!
#90000
0!
#95000
1T
b0 <
b0 B"
b0 j"
1E
1F
1@
1M
0D
b1111 a
b1111 v
b1111 +"
b0 k
b0 m
b0 u
b0 o
b0 h
b0 q
b0 )"
bx ;
bx Q"
bx U"
b11 X"
b111 A
b111 ?"
b0 =
b0 :"
b0 A"
b0 i"
b11 C
b11 #"
b11000 d
b11000 ""
b11000 *"
b11000 b"
b0 j
b0 n
b0 l
b0 p
b0 t
b0 %
b0 g"
b100100 9
b100100 P"
b100100 d"
b100000 :
b100000 V"
b100000 e"
b10001110000011 H
b10001110000011 S"
b10001110000011 W"
b100000 B
b100000 D"
b100000 T"
b10 c
b10 r
b10 !"
b10 G"
b0 Z
b0 ,"
b0 ;"
b0 J"
b11 V
b11 5"
b11 M"
b0 X
b0 6"
b0 K"
b1111 U
b1111 N"
b0 W
b0 L"
b11000 y
b11000 }
b11100 [
b11100 |
b11100 -"
b11100 I"
b0 i
b0 s
b0 F"
1g
1\
0Y
b10100 6
b10100 /"
b11000 1
b11000 0"
b11000 ["
b110 0
b110 1"
b110 3"
b110 \"
0,
b1111 8
b1111 '"
b1111 ."
b1111 Z"
b10100 )
b10100 _"
b101 (
b101 4"
b101 `"
b101 f"
b0 +
b0 ^"
1!
#100000
0!
#105000
0z
1{
0w
1x
b0 a
b0 v
b0 +"
bx <
bx B"
bx j"
bx >
bx C"
bx k"
0M
0E
0F
0@
b1111 %
b1111 g"
b11100 d
b11100 ""
b11100 *"
b11100 b"
bx X"
xJ
bx K
bx >"
bx A
bx ?"
bx =
bx :"
bx A"
bx i"
bx ?
bx 9"
bx @"
bx h"
bx C
bx #"
b11000 )
b11000 _"
b110 (
b110 4"
b110 `"
b110 f"
b1111 +
b1111 ^"
b11000 6
b11000 /"
b11100 1
b11100 0"
b11100 ["
b0 0
b0 1"
b0 3"
b0 \"
b1111 -
b1111 %"
b1111 2"
1,
b0 8
b0 '"
b0 ."
b0 Z"
12
0.
b111 Z
b111 ,"
b111 ;"
b111 J"
b0 V
b0 5"
b0 M"
b0 U
b0 N"
b11100 y
b11100 }
b100000 [
b100000 |
b100000 -"
b100000 I"
1]
0\
1^
1Y
bx H
bx S"
bx W"
b100100 B
b100100 D"
b100100 T"
b101000 9
b101000 P"
b101000 d"
b100100 :
b100100 V"
b100100 e"
1!
#110000
0!
#115000
bx o
bx j
bx n
xT
bx h
bx q
bx )"
bx a
bx v
bx +"
xz
x{
xw
xx
bx k
bx m
bx u
b100000 d
b100000 ""
b100000 *"
b100000 b"
b1111 /
b1111 &"
b1111 ]"
b0 %
b0 g"
b101100 9
b101100 P"
b101100 d"
b101000 :
b101000 V"
b101000 e"
b101000 B
b101000 D"
b101000 T"
xb
bx c
bx r
bx !"
bx G"
bx Z
bx ,"
bx ;"
bx J"
bx V
bx 5"
bx M"
bx X
bx 6"
bx K"
bx U
bx N"
bx W
bx L"
b100000 y
b100000 }
b100100 [
b100100 |
b100100 -"
b100100 I"
0g
0]
0^
0Y
b11100 6
b11100 /"
b100000 1
b100000 0"
b100000 ["
b111 0
b111 1"
b111 3"
b111 \"
b0 -
b0 %"
b0 2"
13
02
14
1.
b11100 )
b11100 _"
b0 (
b0 4"
b0 `"
b0 f"
b0 +
b0 ^"
0&
1!
#120000
0!
#125000
b1111 %
b1111 g"
b0 /
b0 &"
b0 ]"
b100100 d
b100100 ""
b100100 *"
b100100 b"
b100000 )
b100000 _"
b111 (
b111 4"
b111 `"
b111 f"
b1111 '
b1111 a"
1*
1&
b100000 6
b100000 /"
b100100 1
b100100 0"
b100100 ["
bx 0
bx 1"
bx 3"
bx \"
bx -
bx %"
bx 2"
x,
bx 8
bx '"
bx ."
bx Z"
03
04
0.
b100100 y
b100100 }
b101000 [
b101000 |
b101000 -"
b101000 I"
b101100 B
b101100 D"
b101100 T"
b110000 9
b110000 P"
b110000 d"
b101100 :
b101100 V"
b101100 e"
1!
#130000
0!
#135000
b101000 d
b101000 ""
b101000 *"
b101000 b"
bx %
bx g"
b110100 9
b110100 P"
b110100 d"
b110000 :
b110000 V"
b110000 e"
b110000 B
b110000 D"
b110000 T"
b101000 y
b101000 }
b101100 [
b101100 |
b101100 -"
b101100 I"
b100100 6
b100100 /"
b101000 1
b101000 0"
b101000 ["
b100100 )
b100100 _"
bx (
bx 4"
bx `"
bx f"
bx +
bx ^"
b0 '
b0 a"
0*
0&
1!
#140000
0!
#145000
b101100 d
b101100 ""
b101100 *"
b101100 b"
b101000 )
b101000 _"
b101000 6
b101000 /"
b101100 1
b101100 0"
b101100 ["
b101100 y
b101100 }
b110000 [
b110000 |
b110000 -"
b110000 I"
b110100 B
b110100 D"
b110100 T"
b111000 9
b111000 P"
b111000 d"
b110100 :
b110100 V"
b110100 e"
1!
#150000
0!
#155000
b110000 d
b110000 ""
b110000 *"
b110000 b"
b111100 9
b111100 P"
b111100 d"
b111000 :
b111000 V"
b111000 e"
b111000 B
b111000 D"
b111000 T"
b110000 y
b110000 }
b110100 [
b110100 |
b110100 -"
b110100 I"
b101100 6
b101100 /"
b110000 1
b110000 0"
b110000 ["
b101100 )
b101100 _"
1!
#160000
0!
#165000
b110100 d
b110100 ""
b110100 *"
b110100 b"
b110000 )
b110000 _"
b110000 6
b110000 /"
b110100 1
b110100 0"
b110100 ["
b110100 y
b110100 }
b111000 [
b111000 |
b111000 -"
b111000 I"
b111100 B
b111100 D"
b111100 T"
b1000000 9
b1000000 P"
b1000000 d"
b111100 :
b111100 V"
b111100 e"
1!
#170000
0!
#175000
b111000 d
b111000 ""
b111000 *"
b111000 b"
b1000100 9
b1000100 P"
b1000100 d"
b1000000 :
b1000000 V"
b1000000 e"
b1000000 B
b1000000 D"
b1000000 T"
b111000 y
b111000 }
b111100 [
b111100 |
b111100 -"
b111100 I"
b110100 6
b110100 /"
b111000 1
b111000 0"
b111000 ["
b110100 )
b110100 _"
1!
#180000
0!
#185000
b111100 d
b111100 ""
b111100 *"
b111100 b"
b111000 )
b111000 _"
b111000 6
b111000 /"
b111100 1
b111100 0"
b111100 ["
b111100 y
b111100 }
b1000000 [
b1000000 |
b1000000 -"
b1000000 I"
b1000100 B
b1000100 D"
b1000100 T"
b1001000 9
b1001000 P"
b1001000 d"
b1000100 :
b1000100 V"
b1000100 e"
1!
#190000
0!
#195000
b1000000 d
b1000000 ""
b1000000 *"
b1000000 b"
b1001100 9
b1001100 P"
b1001100 d"
b1001000 :
b1001000 V"
b1001000 e"
b1001000 B
b1001000 D"
b1001000 T"
b1000000 y
b1000000 }
b1000100 [
b1000100 |
b1000100 -"
b1000100 I"
b111100 6
b111100 /"
b1000000 1
b1000000 0"
b1000000 ["
b111100 )
b111100 _"
1!
#200000
0!
#205000
b1000100 d
b1000100 ""
b1000100 *"
b1000100 b"
b1000000 )
b1000000 _"
b1000000 6
b1000000 /"
b1000100 1
b1000100 0"
b1000100 ["
b1000100 y
b1000100 }
b1001000 [
b1001000 |
b1001000 -"
b1001000 I"
b1001100 B
b1001100 D"
b1001100 T"
b1010000 9
b1010000 P"
b1010000 d"
b1001100 :
b1001100 V"
b1001100 e"
1!
#210000
0!
#215000
b1001000 d
b1001000 ""
b1001000 *"
b1001000 b"
b1010100 9
b1010100 P"
b1010100 d"
b1010000 :
b1010000 V"
b1010000 e"
b1010000 B
b1010000 D"
b1010000 T"
b1001000 y
b1001000 }
b1001100 [
b1001100 |
b1001100 -"
b1001100 I"
b1000100 6
b1000100 /"
b1001000 1
b1001000 0"
b1001000 ["
b1000100 )
b1000100 _"
1!
#216000
b1111 m"
b11100110111011100100000011110000011001100101100001100000010100001111000001100000010100100100000011100110111010001101111011100100110010101100100001000000011000100110101 p"
b1111 o"
b0 n"
b1001 $
b0 q"
b111100000110000001000000110000101101100011101110110000101111001011100110010000001111010011001010111001001101111 s"
b0 r"
b0 t"
